…
#> Warning: Unknown or uninitialised column: `title`.
#> Warning: Unknown or uninitialised column: `description`.
#> Warning: Unknown or uninitialised column: `id`.
#> Warning: Unknown or uninitialised column: `title`.
#> Warning: Unknown or uninitialised column: `description`.
#> Warning: Unknown or uninitialised column: `id`.
#> Warning: Unknown or uninitialised column: `title`.
#> Warning: Unknown or uninitialised column: `description`.
#> Warning: Unknown or uninitialised column: `id`.
#> Warning: Unknown or uninitialised column: `title`.
#> Warning: Unknown or uninitialised column: `description`.
#> Warning: Unknown or uninitialised column: `id`.
#> Warning: Unknown or uninitialised column: `title`.
#> Fetching metadata ■■■■■■■■■■■■■■■■■■■■■■■■■■■■■■■  100% | ETA:  0s
#> # A tibble: 100 × 18
#>    id      title description category updated first_period last_period time_unit
#>    <chr>   <chr> <chr>       <chr>    <chr>   <chr>        <chr>       <chr>    
#>  1 TAB1743 Inco… ""          public   2015-1… 1995         2013        Annual   
#>  2 TAB934  Fami… ""          public   2015-1… 1995         2013        Annual   
#>  3 TAB4552 Popu… ""          public   2025-0… 1960         2023        Annual   
#>  4 TAB6473 Popu… ""          public   2026-0… 2025M01      2026M02     Monthly  
#>  5 TAB1625 Popu… ""          public   2025-0… 2000M01      2024M12     Monthly  
#>  6 TAB6481 Popu… ""          public   2026-0… 2025         2025        Annual   
#>  7 TAB5169 Popu… ""          public   2025-0… 2000         2024        Annual   
#>  8 TAB4562 Popu… ""          public   2025-0… 2000         2023        Annual   
#>  9 TAB938  Fami… ""          public   2015-1… 1995         2013        Annual   
#> 10 TAB4951 Gain… ""          public   2022-0… 2015         2020        Annual   
#> # ℹ 90 more rows
#> # ℹ 10 more variables: variables <list>, subject_code <chr>,
#> #   subject_path <chr>, source <chr>, discontinued <lgl>, notes <list>,
#> #   contents <chr>, subject_area <chr>, official_statistics <lgl>,
#> #   contact <chr>
```
