…
You can inspect the available values for any single variable with
[`variable_values()`](https://lchansson.github.io/pixieweb/reference/variable_values.md):

``` r
vars |> variable_values("Region")
```

    #> # A tibble: 312 × 2
    #>    code  text            
    #>    <chr> <chr>           
    #>  1 00    Sweden          
    #>  2 01    Stockholm county
    #>  3 0114  Upplands Väsby  
    #>  4 0115  Vallentuna      
    #>  5 0117  Österåker       
    #>  6 0120  Värmdö          
    #>  7 0123  Järfälla        
    #>  8 0125  Ekerö           
    #>  9 0126  Huddinge        
    #> 10 0127  Botkyrka        
    #> # ℹ 302 more rows
…
